<svg width="49" height="32" viewBox="0 0 49 32" version="1.1" xmlns="http://www.w3.org/2000/svg" xmlns:xlink="http://www.w3.org/1999/xlink" xmlns:figma="http://www.figma.com/figma/ns">
<title>arrow</title>
<desc>Created using Figma</desc>
<g id="Canvas" transform="translate(-2813 -4765)" figma:type="canvas">
<g id="arrow" figma:type="frame">
<g id="Arrow Forward" figma:type="vector">
<use xlink:href="#path0_fill" transform="translate(2813.06 4765)" fill="#121313"/>
</g>
</g>
</g>
<defs>
<path id="path0_fill" fill-rule="evenodd" d="M 48.9428 16.0003C 48.9428 15.6122 48.7816 15.2416 48.5133 14.9625L 34.003 0.430024C 33.4299 -0.144068 32.502 -0.142614 31.9304 0.430024C 31.3572 1.00266 31.3572 1.93284 31.9304 2.50548L 43.9399 14.5323C 43.9399 14.5323 1.00381 14.5323 0.501927 14.5323C 4.88162e-05 14.5323 0.000133552 15.8677 4.0612e-06 16C -0.000125429 16.1323 -0.000125527 17.4682 0.501927 17.4682L 43.9385 17.4682L 31.9304 29.4951C 31.3572 30.0677 31.3587 30.9979 31.9304 31.5705C 32.5035 32.1432 33.4314 32.1432 34.003 31.5705L 48.5133 17.038C 48.7874 16.7633 48.9384 16.3854 48.9428 16.0003Z"/>
</defs>
</svg>
