<svg width="27" height="27" viewBox="0 0 27 27" version="1.1" xmlns="http://www.w3.org/2000/svg" xmlns:xlink="http://www.w3.org/1999/xlink" xmlns:figma="http://www.figma.com/figma/ns">
<title>Vector</title>
<desc>Created using Figma</desc>
<g id="Canvas" transform="translate(-2957 -3290)" figma:type="canvas">
<g id="Vector" figma:type="vector">
<use xlink:href="#path0_fill" transform="translate(2957 3290)"/>
</g>
</g>
<defs>
<path id="path0_fill" d="M 27 1.97906L 25.0209 0L 13.4293 11.4503L 1.97906 0L 0 1.97906L 11.4503 13.4293L 0 25.0209L 1.97906 27L 13.4293 15.5497L 25.0209 27L 27 25.0209L 15.5497 13.4293L 27 1.97906Z"/>
</defs>
</svg>
