<svg width="17" height="23" viewBox="0 0 17 23" version="1.1" xmlns="http://www.w3.org/2000/svg" xmlns:xlink="http://www.w3.org/1999/xlink" xmlns:figma="http://www.figma.com/figma/ns">
<title>play</title>
<desc>Created using Figma</desc>
<g id="Canvas" transform="translate(-2912 -4192)" figma:type="canvas">
<g id="play" figma:type="regular-polygon">
<use xlink:href="#path0_fill" transform="matrix(6.12323e-17 1 -1 6.12323e-17 2929 4191)" fill="#FFFFFF"/>
</g>
</g>
<defs>
<path id="path0_fill" d="M 12.5 0L 23.3253 16.5L 1.67468 16.5L 12.5 0Z"/>
</defs>
</svg>
