<svg width="35" height="35" viewBox="0 0 35 35" version="1.1" xmlns="http://www.w3.org/2000/svg" xmlns:xlink="http://www.w3.org/1999/xlink" xmlns:figma="http://www.figma.com/figma/ns">
<title>search</title>
<desc>Created using Figma</desc>
<g id="Canvas" transform="translate(-3089 -3286)" figma:type="canvas">
<g id="search" figma:type="frame">
<g id="g" figma:type="frame">
<g id="g" figma:type="frame">
<g id="g" figma:type="frame">
<g id="path" figma:type="vector">
<use xlink:href="#path0_fill" transform="translate(3089 3286)" fill="#909090"/>
</g>
</g>
</g>
</g>
</g>
</g>
<defs>
<path id="path0_fill" fill-rule="evenodd" d="M 25 22L 23.4 22L 22.8 21.4C 24.8 19.2 26 16.2 26 13C 26 5.8 20.2 0 13 0C 5.8 0 0 5.8 0 13C 0 20.2 5.8 26 13 26C 16.2 26 19.2 24.8 21.4 22.8L 22 23.4L 22 25L 32 35L 35 32L 25 22ZM 13 22C 8 22 4 18 4 13C 4 8 8 4 13 4C 18 4 22 8 22 13C 22 18 18 22 13 22Z"/>
</defs>
</svg>
