<svg width="27" height="22" viewBox="0 0 27 22" version="1.1" xmlns="http://www.w3.org/2000/svg" xmlns:xlink="http://www.w3.org/1999/xlink" xmlns:figma="http://www.figma.com/figma/ns">
<title>twitter</title>
<desc>Created using Figma</desc>
<g id="Canvas" transform="translate(-2530 -3588)" figma:type="canvas">
<g id="twitter" figma:type="vector">
<use xlink:href="#path0_fill" transform="translate(2530 3588)" fill="#CBCBCB"/>
</g>
</g>
<defs>
<path id="path0_fill" d="M 8.48886 22C 18.6806 22 24.2551 13.5343 24.2551 6.19797C 24.2551 5.96022 24.2551 5.72247 24.2382 5.47622C 25.3226 4.68655 26.2545 3.71856 27 2.59773C 25.9918 3.04776 24.9159 3.34495 23.8146 3.47231C 24.9752 2.77604 25.8393 1.68917 26.2545 0.398518C 25.1701 1.04385 23.9755 1.50237 22.7386 1.74861C 20.6376 -0.484562 17.1302 -0.594947 14.9021 1.51086C 13.4619 2.86944 12.8519 4.89034 13.3009 6.81783C 8.84468 6.59706 4.69344 4.48276 1.88077 1.01837C 0.406652 3.55722 1.16065 6.80085 3.59209 8.43115C 2.71101 8.40567 1.84688 8.16792 1.07593 7.73487C 1.07593 7.76034 1.07593 7.77733 1.07593 7.8028C 1.07593 10.4435 2.93975 12.7192 5.52369 13.2456C 4.71039 13.4664 3.85472 13.5004 3.02447 13.339C 3.75306 15.5977 5.82868 17.1516 8.20082 17.194C 6.23533 18.7394 3.81236 19.58 1.32162 19.58C 0.88108 19.58 0.440539 19.5546 -2.58542e-07 19.5036C 2.52463 21.1339 5.47286 22 8.48886 22Z"/>
</defs>
</svg>
